Starbucks
…
##            <dbl> <chr>   <int>
##  1             0 1 scoop     2
##  2             0 1 shot      1
##  3             0 doppio      7
##  4           473 grande    334
##  5             0 quad        7
##  6           236 short     123
##  7             0 solo        7
##  8           354 tall      318
##  9           887 trenta     21
## 10             0 triple      7
## 11           591 venti     135
## 12           709 venti     185

## # A tibble: 85 x 3
## # Groups:   serv_size_m_l [2]
##    serv_size_m_l product_name                                        n
##            <dbl> <chr>                                           <int>
##  1           709 Iced Caff Mocha                                   20
##  2           591 Caff Mocha                                        10
##  3           591 Cinnamon Dolce Latte                               10
##  4           591 Hot Chocolate                                      10
##  5           591 White Chocolate Mocha                              10
##  6           591 White Hot Chocolate                                10
##  7           709 Caff Vanilla Frappuccino Blended                  10
##  8           709 Caramel Frappuccino Blended                        10
##  9           709 Chai Crme Frappuccino Blended                     10
## 10           709 Double Chocolaty Chip Crme Frappuccino Blended    10
## # ... with 75 more rows
…
## # Groups:   chocolate [2]
##    chocolate size    m_sodium
##    <lgl>     <chr>      <dbl>
##  1 TRUE      venti      294. 
##  2 TRUE      grande     216. 
##  3 FALSE     venti      181. 
##  4 TRUE      tall       167. 
##  5 FALSE     grande     135. 
##  6 TRUE      short      106. 
##  7 FALSE     tall       101. 
##  8 FALSE     short       49.0
##  9 FALSE     trenta      27.8
## 10 FALSE     1 scoop     22.5

## # A tibble: 896 x 2
##    product_name                             sodium_mg
##    <chr>                                        <dbl>
##  1 Strawberries & Crme Frappuccino Blended       370
##  2 Caramel Frappuccino Blended                    330
##  3 Chai Crme Frappuccino Blended                 330
##  4 Green Tea Crme Frappuccino Blended            330
##  5 Caramel Frappuccino Blended                    320
##  6 Caramel Frappuccino Blended                    320
##  7 Caramel Frappuccino Blended                    320
##  8 Iced Caff Mocha                               320
##  9 Iced Caff Mocha                               320
## 10 Iced Caff Mocha                               320
## # ... with 886 more rows
…
