…
```
## # A tibble: 85 x 3
## # Groups:   serv_size_m_l [2]
##    serv_size_m_l product_name                                        n
##            <dbl> <chr>                                           <int>
##  1           709 Iced Caffè Mocha                                   20
##  2           591 Caffè Mocha                                        10
##  3           591 Cinnamon Dolce Latte                               10
##  4           591 Hot Chocolate                                      10
##  5           591 White Chocolate Mocha                              10
##  6           591 White Hot Chocolate                                10
##  7           709 Caffè Vanilla Frappuccino Blended                  10
##  8           709 Caramel Frappuccino Blended                        10
##  9           709 Chai Crème Frappuccino Blended                     10
## 10           709 Double Chocolaty Chip Crème Frappuccino Blended    10
## # ... with 75 more rows
```
…
```
## # A tibble: 896 x 2
##    product_name                             sodium_mg
##    <chr>                                        <dbl>
##  1 Strawberries & Crème Frappuccino Blended       370
##  2 Caramel Frappuccino Blended                    330
##  3 Chai Crème Frappuccino Blended                 330
##  4 Green Tea Crème Frappuccino Blended            330
##  5 Caramel Frappuccino Blended                    320
##  6 Caramel Frappuccino Blended                    320
##  7 Caramel Frappuccino Blended                    320
##  8 Iced Caffè Mocha                               320
##  9 Iced Caffè Mocha                               320
## 10 Iced Caffè Mocha                               320
## # ... with 886 more rows
```
…
