…
## Oldpeak

``` r
heart %>%
  count(oldpeak)
```

    ## # A tibble: 53 x 2
    ##    oldpeak     n
    ##      <dbl> <int>
    ##  1    -2.6     1
    ##  2    -2       1
    ##  3    -1.5     1
    ##  4    -1.1     1
    ##  5    -1       2
    ##  6    -0.9     1
    ##  7    -0.8     1
    ##  8    -0.7     1
    ##  9    -0.5     2
    ## 10    -0.1     2
    ## # ... with 43 more rows
…
