…
``` r
music_joined <- billboard %>%
  inner_join(audio, by = c("song_id", "performer")) %>%
  select(-url) %>%
  mutate(score = 101 - week_position)
```

``` r
music_joined %>%
  group_by(performer) %>%
  summarize(n = max(weeks_on_chart)) %>%
  arrange(-n)
```

    ## # A tibble: 10,058 x 2
    ##    performer                                     n
    ##    <chr>                                     <dbl>
    ##  1 Imagine Dragons                              87
    ##  2 AWOLNATION                                   79
    ##  3 Jason Mraz                                   76
    ##  4 The Weeknd                                   76
    ##  5 LeAnn Rimes                                  69
    ##  6 LMFAO Featuring Lauren Bennett & GoonRock    68
    ##  7 OneRepublic                                  68
    ##  8 Adele                                        65
    ##  9 Jewel                                        65
    ## 10 Carrie Underwood                             64
    ## # ... with 10,048 more rows
…
``` r
#Number of songs at top 1 by performer
music_joined %>%
  group_by(performer) %>%
  summarize(n = n_distinct(song_id[week_position == 1])) %>%
  arrange(-n)
```

    ## # A tibble: 10,058 x 2
    ##    performer              n
    ##    <chr>              <int>
    ##  1 The Beatles           19
    ##  2 Mariah Carey          16
    ##  3 Madonna               12
    ##  4 Michael Jackson       11
    ##  5 Whitney Houston       11
    ##  6 The Supremes          10
    ##  7 Bee Gees               9
    ##  8 The Rolling Stones     8
    ##  9 Janet Jackson          7
    ## 10 Stevie Wonder          7
    ## # ... with 10,048 more rows
…
``` r
#by danceability
music_joined %>%
  filter(!is.na(danceability)) %>%
  group_by(danceability) %>%
  summarize(n = sum(week_position == 1, na.rm = TRUE)) %>%
  arrange(-n)
```

    ## # A tibble: 837 x 2
    ##    danceability     n
    ##           <dbl> <int>
    ##  1        0.878    39
    ##  2        0.703    29
    ##  3        0.638    28
    ##  4        0.653    28
    ##  5        0.701    25
    ##  6        0.781    24
    ##  7        0.741    23
    ##  8        0.778    23
    ##  9        0.586    22
    ## 10        0.637    21
    ## # ... with 827 more rows
…
